%YAML 1.1
%TAG !u! tag:unity3d.com,2011:
--- !u!78 &1
TagManager:
  serializedVersion: 2
  tags:
  - Rocket
  - Moon
  - Earth
  - Ring
  - InfoBoard
  - Hand
  - ReplayRocket
  - RingReplay
  - MoonReplay
  - EarthReplay
  - GravityMenu
  - Button
  layers:
  - Default
  - TransparentFX
  - Ignore Raycast
  - 
  - Water
  - UI
  - 
  - 
  - Planets
  - Rocket
  - Ring
  - ReplayRocket
  - UIControls
  - 
  - 
  - 
  - 
  - 
  - 
  - 
  - 
  - 
  - 
  - 
  - 
  - 
  - 
  - 
  - 
  - 
  - 
  - 
  m_SortingLayers:
  - name: Default
    uniqueID: 0
    locked: 0
